<?xml version="1.0" encoding="utf-8"?>
<!-- Generator: Adobe Illustrator 19.2.0, SVG Export Plug-In . SVG Version: 6.00 Build 0)  -->
<svg version="1.1" id="Layer_1" xmlns="http://www.w3.org/2000/svg" xmlns:xlink="http://www.w3.org/1999/xlink" x="0px" y="0px"
	 width="37px" height="37px" viewBox="0 0 37 37" style="enable-background:new 0 0 37 37;" xml:space="preserve">
<g>
	<path d="M16.2,8c-0.2,0-0.4,0-0.4,0.9c0,0.4,0.2,0.7,0.6,0.8V8c0,0,0,0,0,0C16.3,8,16.2,8,16.2,8z"/>
	<path d="M21.3,8.9C21.3,8,21.1,8,20.8,8c0,0-0.1,0-0.1,0c0,0,0,0,0,0v1.7C21,9.6,21.3,9.2,21.3,8.9z"/>
	<path d="M19.2,9.6L19,9.1c0,0,0,0,0,0l0.5-0.3c0.1-0.1,0.1-0.1,0.1-0.2s0-0.1-0.2-0.1h-0.6c0,0,0,0,0,0l-0.2-0.5
		c0-0.1-0.1-0.1-0.1-0.1s-0.1,0-0.1,0.1l-0.2,0.5c0,0,0,0,0,0h-0.6c-0.1,0-0.2,0.1-0.2,0.1c0,0,0,0.1,0.1,0.2L18,9.1c0,0,0,0,0,0
		l-0.2,0.5c0,0.1,0,0.1,0,0.2l0,0c0,0.1,0.1,0.1,0.2,0l0.5-0.3L19,9.8c0,0,0.1,0,0.1,0c0,0,0.1,0,0.1-0.1
		C19.2,9.7,19.2,9.7,19.2,9.6z"/>
	<path d="M18.5,1C8.8,1,1,8.8,1,18.5S8.8,36,18.5,36S36,28.2,36,18.5S28.2,1,18.5,1z M24,10.7c1.4,0,2.5,1.1,2.5,2.5
		s-1.1,2.5-2.5,2.5c-1.4,0-2.5-1.1-2.5-2.5S22.6,10.7,24,10.7z M12.9,10.7c1.4,0,2.5,1.1,2.5,2.5s-1.1,2.5-2.5,2.5s-2.5-1.1-2.5-2.5
		S11.6,10.7,12.9,10.7z M29.1,21.5c-0.2,0.1-0.4,0.2-0.6,0.2c-0.3,0-0.6-0.2-0.8-0.4l-0.8-1.2c0,0,0-0.1-0.1-0.1l0.2,2.1l0.6,2.9
		c0.1,0.3,0.2,0.8,0.2,1.1l0.7,2.9c0.1,0.6-0.2,1.2-0.8,1.3c-0.1,0-0.2,0-0.3,0c-0.5,0-0.9-0.3-1.1-0.8l-0.7-2.9
		c-0.1-0.3-0.2-0.8-0.3-1.1L24.9,23h-0.4l-0.2,2.2c0,0.3,0,0.7,0,1l0.1,3.2c0,0.3-0.1,0.6-0.3,0.8c-0.2,0.2-0.5,0.3-0.8,0.3
		c0,0,0,0,0,0c-0.6,0-1.1-0.5-1.1-1.1l-0.1-3.2c0-0.4,0-0.9,0-1.3l0.3-3.3c0,0,0,0,0,0l-0.3-3.7l-2.3-1.6c-0.3-0.2-0.7-0.6-1-0.8
		l-0.2-0.2l-0.2,0.2c-0.3,0.2-0.7,0.6-1,0.8l-2.5,1.7l-0.3,3.5c0,0,0,0,0,0l0.3,3.3c0,0.4,0,0.9,0,1.3l-0.1,3c0,0.6-0.5,1.1-1.1,1.1
		c0,0,0,0,0,0c-0.3,0-0.6-0.1-0.8-0.3c-0.2-0.2-0.3-0.5-0.3-0.8l0.1-3c0-0.3,0-0.7,0-1L12.4,23H12l-1.4,6.5
		c-0.1,0.5-0.6,0.9-1.1,0.9c-0.1,0-0.2,0-0.2,0c-0.3-0.1-0.5-0.2-0.7-0.5c-0.2-0.2-0.2-0.5-0.2-0.8l1.5-6.9l0.2-1.9l-0.8,1
		c-0.2,0.3-0.5,0.4-0.8,0.4c-0.2,0-0.4-0.1-0.6-0.2c-0.2-0.2-0.4-0.4-0.4-0.7c0-0.3,0-0.5,0.2-0.8l0.8-1.1C8.7,18.7,9,18.2,9.2,18
		l1.2-1.6c0.2-0.2,0.4-0.4,0.8-0.4c0,0,2.9,0,2.9,0l1.9-1.3c0.2-0.1,0.6-0.4,0.8-0.6l0.2-0.2h-0.3c-0.1,0-0.1,0-0.2-0.1
		c0,0,0-0.1,0-0.2l0.3-0.9c0-0.1,0.2-0.2,0.3-0.2h0.6l0.2-1L17,10.9c-0.2-0.1-0.4-0.4-0.5-0.7c-0.7-0.1-1.3-0.7-1.3-1.4
		c0-1,0.3-1.4,0.9-1.4L16,6.8c0-0.1,0-0.2,0-0.2c0-0.1,0.1-0.1,0.2-0.1h4.6c0.1,0,0.1,0,0.2,0.1c0,0.1,0.1,0.1,0,0.2l-0.2,0.6
		c0.7,0,0.9,0.4,0.9,1.4c0,0.7-0.6,1.3-1.3,1.4c-0.1,0.3-0.3,0.5-0.5,0.7l-0.9,0.6l0.2,1H20c0.1,0,0.3,0.1,0.3,0.2l0.3,0.9
		c0,0.1,0,0.1,0,0.2c0,0.1-0.1,0.1-0.2,0.1H20l0.2,0.2c0.2,0.2,0.5,0.5,0.8,0.6l1.9,1.3c0,0,2.9,0,2.9,0c0.4,0,0.5,0.2,0.7,0.4
		l1.2,1.6c0.2,0.3,0.5,0.7,0.7,0.9l0.8,1.2l0,0c0.2,0.2,0.2,0.5,0.2,0.8C29.5,21.1,29.3,21.4,29.1,21.5z"/>
</g>
</svg>
