<?xml version="1.0" encoding="utf-8"?>
<!-- Generator: Adobe Illustrator 19.2.0, SVG Export Plug-In . SVG Version: 6.00 Build 0)  -->
<svg version="1.1" id="Layer_1" xmlns="http://www.w3.org/2000/svg" xmlns:xlink="http://www.w3.org/1999/xlink" x="0px" y="0px"
	 width="37px" height="37px" viewBox="0 0 37 37" style="enable-background:new 0 0 37 37;" xml:space="preserve">
<path d="M18.5,1C8.8,1,1,8.8,1,18.5S8.8,36,18.5,36S36,28.2,36,18.5S28.2,1,18.5,1z M23.3,7.7c1.2,0,2.1,0.9,2.1,2.1
	c0,1.2-0.9,2.1-2.1,2.1s-2.1-0.9-2.1-2.1C21.2,8.6,22.1,7.7,23.3,7.7z M10.8,13.6c1,0,1.7,0.8,1.7,1.7s-0.8,1.7-1.7,1.7
	S9,16.3,9,15.4S9.8,13.6,10.8,13.6z M16.6,18.3c-1.2,0.2-2.5,0.4-3.6,0.9c0.1,1.2,0.1,2.4,0.2,3.7c1,1.5,2.1,3,3.4,4.3
	c0.8,0.8-0.3,2-1.1,1.3c-1.2-1.2-2.3-2.6-3.3-4c-0.2,0-0.3,0-0.5,0c-0.7,1.3-0.7,2.4,0.3,3.8c0.6,0.9-0.8,1.7-1.5,0.8
	c-1.5-2-1.2-4.1,0.1-6.2c0,0,0,0,0,0c0-0.9-0.1-1.8-0.1-2.7c-0.9,0.4-1.8,1-2.5,1.7c-0.7,0.8-2-0.3-1.3-1.1c1-1.1,2.3-1.9,3.7-2.5
	c0.1,0,0.2-0.1,0.3-0.1c0.3-0.2,0.6-0.3,1-0.3c0.1-0.1,0.2-0.2,0.3-0.2c1.3-0.6,2.8-0.9,4.2-1.1l0,0C17.3,16.5,17.6,18.2,16.6,18.3z
	 M28.7,18.9c0.1,0.2,0.2,0.4,0.2,0.7c0.1,0.1,0.1,0.3,0.1,0.5c0.3,2.5,0.6,5,1,7.5c0.3,1.6-2.1,2.3-2.4,0.7
	c-0.3-1.9-0.6-3.9-0.9-5.8c-1.4,1.6-2.1,3.6-2.8,5.6c-0.6,1.5-3,0.9-2.4-0.7c1-2.6,1.9-5.1,3.8-7c-0.7-1.6-1.4-3.3-2-5
	c-1.4,0.8-2.8,1.7-4.2,2.4c-1.4,0.7-2.8-1.4-1.4-2.1c1.9-1,3.7-2.2,5.7-3.1c0.6-0.5,1.5-0.6,2.2-0.2c0.2,0,0.3,0,0.5,0
	c1.6,0.2,3,1.1,4.1,2.3c1.1,1.2-0.7,3-1.8,1.8c-0.4-0.4-0.8-0.7-1.2-1C27.7,16.5,28.2,17.7,28.7,18.9z"/>
</svg>
