<?xml version="1.0" encoding="utf-8"?>
<!-- Generated by IcoMoon.io -->
<!DOCTYPE svg PUBLIC "-//W3C//DTD SVG 1.1//EN" "http://www.w3.org/Graphics/SVG/1.1/DTD/svg11.dtd">
<svg version="1.1" xmlns="http://www.w3.org/2000/svg" xmlns:xlink="http://www.w3.org/1999/xlink" width="14" height="24" viewBox="0 0 14 24">
<path d="M7.156 0.266c0 0 2.813 2.13 4.864 5.346l-3.718 9.398-4.362-11.567h-0.044c1.662-1.967 3.261-3.177 3.261-3.177zM0.197 12.010c0-2.439 0.984-4.707 2.213-6.58l4.8 12.349-1.766 4.466c-2.061-2.016-5.248-5.843-5.248-10.234zM7.161 23.754l6.162-15.625c0.482 1.215 0.792 2.523 0.792 3.88 0 6.403-6.777 11.607-6.954 11.744z"></path>
</svg>
