<?xml version="1.0" encoding="utf-8"?>
<!-- Generator: Adobe Illustrator 19.2.0, SVG Export Plug-In . SVG Version: 6.00 Build 0)  -->
<svg version="1.1" id="Layer_1" xmlns="http://www.w3.org/2000/svg" xmlns:xlink="http://www.w3.org/1999/xlink" x="0px" y="0px"
	 width="37px" height="37px" viewBox="0 0 37 37" style="enable-background:new 0 0 37 37;" xml:space="preserve">
<g>
	<path d="M19.4,14.8c-0.1,0-0.2,0-0.3,0c-1.6,0-2.7,0.2-3.2,0.5c-0.2,0.1-0.5,0.8-0.7,1.2c0,0.1,0,0.2,0,0.2c0,0.1,0.1,0.1,0.2,0.1
		h3.9c0.1,0,0.3-0.1,0.3-0.3l0-1.5C19.7,14.9,19.6,14.8,19.4,14.8z"/>
	<circle cx="10.7" cy="21" r="1.5"/>
	<path d="M24.1,16.7c0-0.1,0-0.2,0-0.3c-0.5-0.8-1.9-1.4-3.7-1.6c-0.1,0-0.1,0-0.2,0.1c-0.1,0-0.1,0.1-0.1,0.2v1.5
		c0,0.1,0.1,0.3,0.3,0.3h3.5C24,16.9,24.1,16.8,24.1,16.7z"/>
	<circle cx="25" cy="21" r="1.5"/>
	<path d="M18.5,1C8.8,1,1,8.8,1,18.5S8.8,36,18.5,36S36,28.2,36,18.5S28.2,1,18.5,1z M30,21.5h-0.5c0,0.3-0.2,0.5-0.5,0.5
		c0,0,0,0,0,0h-1.7c-0.4,0.9-1.3,1.5-2.3,1.5c-1,0-1.9-0.6-2.3-1.5H13c-0.4,0.9-1.3,1.5-2.3,1.5S8.8,22.9,8.4,22H7.8
		c-0.3,0-0.5-0.2-0.5-0.5c0,0,0,0,0-0.1H7c-0.3,0-0.5-0.2-0.5-0.5s0.2-0.5,0.5-0.5h0.3c0.1-0.7,0.4-1.6,1.2-2.5
		c1.5-1.7,4.7-1.9,5.8-1.9c0.8-1.6,1.1-1.8,1.2-1.9c0.8-0.4,2.2-0.7,4.5-0.7c3.5,0,6.2,1.5,8.4,4.4c0.5,0.6,0.8,1.7,0.9,2.6H30v0
		c0.3,0,0.5,0.2,0.5,0.5C30.5,21.2,30.3,21.5,30,21.5z"/>
</g>
</svg>
